<svg xmlns="http://www.w3.org/2000/svg" width="75" height="60" viewBox="0 0 75 60">
  <g id="Explore" transform="translate(-295 -608)">
    <rect id="Rectangle_94" data-name="Rectangle 94" width="75" height="60" transform="translate(295 608)" fill="rgba(255,255,255,0)"/>
    <g id="world-shape-public-symbol" transform="translate(322 620)">
      <g id="public">
        <path id="Path_765" data-name="Path 765" d="M10,0A10,10,0,1,0,20,10,10.029,10.029,0,0,0,10,0ZM9,17.9A8.069,8.069,0,0,1,2,10a11.019,11.019,0,0,1,.2-1.8L7,13v1a2.006,2.006,0,0,0,2,2Zm6.9-2.5A2.044,2.044,0,0,0,14,14H13V11a.945.945,0,0,0-1-1H6V8H8A.945.945,0,0,0,9,7V5h2a2.006,2.006,0,0,0,2-2V2.6A8.1,8.1,0,0,1,18,10,7.907,7.907,0,0,1,15.9,15.4Z" fill="#bbc2cf"/>
      </g>
    </g>
    <text id="Explore-2" data-name="Explore" transform="translate(333 658)" fill="#757575" font-size="12" font-family="Avenir-Book, Avenir"><tspan x="-20.334" y="0">Explore</tspan></text>
  </g>
</svg>
